%YAML 1.1
%TAG !u! tag:unity3d.com,2011:
--- !u!114 &11400000
MonoBehaviour:
  m_ObjectHideFlags: 0
  m_CorrespondingSourceObject: {fileID: 0}
  m_PrefabInstance: {fileID: 0}
  m_PrefabAsset: {fileID: 0}
  m_GameObject: {fileID: 0}
  m_Enabled: 1
  m_EditorHideFlags: 0
  m_Script: {fileID: 11500000, guid: e9ca79477ae0459439acacd190695284, type: 3}
  m_Name: DD11
  m_EditorClassIdentifier: 
  <DialogueText>k__BackingField: "Brak ich wewn\u0119trznych granic daje mi wyczekiwane
    pole do popisu i w\u0142adz\u0119 nad nimi. \u015Amia\u0142o mo\u017Cna powiedzie\u0107,
    \u017Ce wy\u015Bwiadczam w tenspos\xF3b ludzko\u015Bci pewnego rodzaju przys\u0142ug\u0119."
  defaultDialogue: {fileID: 11400000, guid: 780f63e44ffb8e141985531e7d4b21d2, type: 2}
  optionalDialogue: {fileID: 0}
