%YAML 1.1
%TAG !u! tag:unity3d.com,2011:
--- !u!114 &11400000
MonoBehaviour:
  m_ObjectHideFlags: 0
  m_CorrespondingSourceObject: {fileID: 0}
  m_PrefabInstance: {fileID: 0}
  m_PrefabAsset: {fileID: 0}
  m_GameObject: {fileID: 0}
  m_Enabled: 1
  m_EditorHideFlags: 0
  m_Script: {fileID: 11500000, guid: e9ca79477ae0459439acacd190695284, type: 3}
  m_Name: DD14
  m_EditorClassIdentifier: 
  <DialogueText>k__BackingField: "Granica mi\u0119dzy nimi jest naprawd\u0119 cieniutka.
    Zbyt gwa\u0142townie si\u0119 pojawiaj\u0105 i ci\u0119\u017Cko si\u0119 od nich
    uwolni\u0107."
  defaultDialogue: {fileID: 0}
  optionalDialogue: {fileID: 11400000, guid: e1ce083990327c942a46cb9bb6955197, type: 2}
