%YAML 1.1
%TAG !u! tag:unity3d.com,2011:
--- !u!114 &11400000
MonoBehaviour:
  m_ObjectHideFlags: 0
  m_CorrespondingSourceObject: {fileID: 0}
  m_PrefabInstance: {fileID: 0}
  m_PrefabAsset: {fileID: 0}
  m_GameObject: {fileID: 0}
  m_Enabled: 1
  m_EditorHideFlags: 0
  m_Script: {fileID: 11500000, guid: e9ca79477ae0459439acacd190695284, type: 3}
  m_Name: DD15
  m_EditorClassIdentifier: 
  <DialogueText>k__BackingField: "Szczerze m\xF3wi\u0105c, istnienie szcz\u0119\u015Bcia
    nigdy nie by\u0142o mi na r\u0119k\u0119. Ta ci\u0105g\u0142a rado\u015B\u0107,
    u\u015Bmiech, gotowo\u015B\u0107 do dzia\u0142ania\u2026 "
  defaultDialogue: {fileID: 0}
  optionalDialogue: {fileID: 11400000, guid: 4a0f983cf5f94a349afb83242bb2bb61, type: 2}
