%YAML 1.1
%TAG !u! tag:unity3d.com,2011:
--- !u!114 &11400000
MonoBehaviour:
  m_ObjectHideFlags: 0
  m_CorrespondingSourceObject: {fileID: 0}
  m_PrefabInstance: {fileID: 0}
  m_PrefabAsset: {fileID: 0}
  m_GameObject: {fileID: 0}
  m_Enabled: 1
  m_EditorHideFlags: 0
  m_Script: {fileID: 11500000, guid: e9ca79477ae0459439acacd190695284, type: 3}
  m_Name: DD17
  m_EditorClassIdentifier: 
  <DialogueText>k__BackingField: " Musisz sam przyzna\u0107 za to, \u017Ce t\u0119sknota
    powoduje jeszcze wi\u0119cej cierpienia ni\u017C gniew czy smutek. Ludzie miotaj\u0105
    si\u0119 samotnie, czuj\u0105c brak drugiej osoby. To uczucie os\u0142abia \u017Cywych
    tak bardzo, \u017Ce wielokrotnie nawet mi robi si\u0119 przykro patrz\u0105c
    na nich."
  defaultDialogue: {fileID: 0}
  optionalDialogue: {fileID: 11400000, guid: 0937a3893111c1b438ea441e132f4ab6, type: 2}
