%YAML 1.1
%TAG !u! tag:unity3d.com,2011:
--- !u!114 &11400000
MonoBehaviour:
  m_ObjectHideFlags: 0
  m_CorrespondingSourceObject: {fileID: 0}
  m_PrefabInstance: {fileID: 0}
  m_PrefabAsset: {fileID: 0}
  m_GameObject: {fileID: 0}
  m_Enabled: 1
  m_EditorHideFlags: 0
  m_Script: {fileID: 11500000, guid: e9ca79477ae0459439acacd190695284, type: 3}
  m_Name: DD20
  m_EditorClassIdentifier: 
  <DialogueText>k__BackingField: "A na sam koniec czeka ich jedno wielkie rozczarowanie\u2026
    Zwyk\u0142a toksyna o s\u0142odkim smaku, kt\xF3r\u0105 niekt\xF3rzy pij\u0105
    ka\u017Cdego dnia."
  defaultDialogue: {fileID: 0}
  optionalDialogue: {fileID: 11400000, guid: d26701541dd1c9f468602a18a057c784, type: 2}
