%YAML 1.1
%TAG !u! tag:unity3d.com,2011:
--- !u!114 &11400000
MonoBehaviour:
  m_ObjectHideFlags: 0
  m_CorrespondingSourceObject: {fileID: 0}
  m_PrefabInstance: {fileID: 0}
  m_PrefabAsset: {fileID: 0}
  m_GameObject: {fileID: 0}
  m_Enabled: 1
  m_EditorHideFlags: 0
  m_Script: {fileID: 11500000, guid: e9ca79477ae0459439acacd190695284, type: 3}
  m_Name: DD21
  m_EditorClassIdentifier: 
  <DialogueText>k__BackingField: "Zobaczmy wi\u0119c, na co ci\u0119 sta\u0107."
  defaultDialogue: {fileID: 0}
  optionalDialogue: {fileID: 0}
