%YAML 1.1
%TAG !u! tag:unity3d.com,2011:
--- !u!114 &11400000
MonoBehaviour:
  m_ObjectHideFlags: 0
  m_CorrespondingSourceObject: {fileID: 0}
  m_PrefabInstance: {fileID: 0}
  m_PrefabAsset: {fileID: 0}
  m_GameObject: {fileID: 0}
  m_Enabled: 1
  m_EditorHideFlags: 0
  m_Script: {fileID: 11500000, guid: e9ca79477ae0459439acacd190695284, type: 3}
  m_Name: DD5
  m_EditorClassIdentifier: 
  <DialogueText>k__BackingField: "Ale\u017C to \u017Cadna zbrodnia. Pewnie czujesz
    si\u0119 troszk\u0119 pogubiony, wi\u0119c wyja\u015Bni\u0119 ci to i owo przed
    twoim rych\u0142ym ko\u0144cem."
  defaultDialogue: {fileID: 11400000, guid: 887c4c234c49c0a4e9a290ae5075cd73, type: 2}
  optionalDialogue: {fileID: 0}
