%YAML 1.1
%TAG !u! tag:unity3d.com,2011:
--- !u!114 &11400000
MonoBehaviour:
  m_ObjectHideFlags: 0
  m_CorrespondingSourceObject: {fileID: 0}
  m_PrefabInstance: {fileID: 0}
  m_PrefabAsset: {fileID: 0}
  m_GameObject: {fileID: 0}
  m_Enabled: 1
  m_EditorHideFlags: 0
  m_Script: {fileID: 11500000, guid: e9ca79477ae0459439acacd190695284, type: 3}
  m_Name: DD6
  m_EditorClassIdentifier: 
  <DialogueText>k__BackingField: "W ko\u0144cu i tak nie wyjdziesz st\u0105d \u017Cywy\u2026.
    Widzisz, granica dobra i z\u0142a zaciera si\u0119 w momencie, gdy cz\u0142owiek
    sam nie rozumie swoich granic"
  defaultDialogue: {fileID: 11400000, guid: 083d35e09df7c634abbc698efb72556f, type: 2}
  optionalDialogue: {fileID: 0}
