%YAML 1.1
%TAG !u! tag:unity3d.com,2011:
--- !u!114 &11400000
MonoBehaviour:
  m_ObjectHideFlags: 0
  m_CorrespondingSourceObject: {fileID: 0}
  m_PrefabInstance: {fileID: 0}
  m_PrefabAsset: {fileID: 0}
  m_GameObject: {fileID: 0}
  m_Enabled: 1
  m_EditorHideFlags: 0
  m_Script: {fileID: 11500000, guid: e9ca79477ae0459439acacd190695284, type: 3}
  m_Name: DD7
  m_EditorClassIdentifier: 
  <DialogueText>k__BackingField: "Wiesz, \u017Ce morderstwo jest z\u0142e, kiedy
    twoje sumienie nie zosta\u0142o u\u015Bpione i nie pozwala ci \u017Cy\u0107 z
    t\u0105 my\u015Bl\u0105 w spokoju"
  defaultDialogue: {fileID: 11400000, guid: f9464801c12c32c45acd8e2a0859c1cf, type: 2}
  optionalDialogue: {fileID: 0}
