%YAML 1.1
%TAG !u! tag:unity3d.com,2011:
--- !u!114 &11400000
MonoBehaviour:
  m_ObjectHideFlags: 0
  m_CorrespondingSourceObject: {fileID: 0}
  m_PrefabInstance: {fileID: 0}
  m_PrefabAsset: {fileID: 0}
  m_GameObject: {fileID: 0}
  m_Enabled: 1
  m_EditorHideFlags: 0
  m_Script: {fileID: 11500000, guid: e9ca79477ae0459439acacd190695284, type: 3}
  m_Name: DD8
  m_EditorClassIdentifier: 
  <DialogueText>k__BackingField: "Nikt ci nie musi wtedy t\u0142umaczy\u0107, czemu
    to nie by\u0142 chwalebny czyn, poniewa\u017C sam to doskonale odczuwasz i sam
    siebie ka\u017Cesz swymi wyrzutami."
  defaultDialogue: {fileID: 11400000, guid: 63c06f9233b31b54e9b2f7c56aff497a, type: 2}
  optionalDialogue: {fileID: 0}
