%YAML 1.1
%TAG !u! tag:unity3d.com,2011:
--- !u!114 &11400000
MonoBehaviour:
  m_ObjectHideFlags: 0
  m_CorrespondingSourceObject: {fileID: 0}
  m_PrefabInstance: {fileID: 0}
  m_PrefabAsset: {fileID: 0}
  m_GameObject: {fileID: 0}
  m_Enabled: 1
  m_EditorHideFlags: 0
  m_Script: {fileID: 11500000, guid: e9ca79477ae0459439acacd190695284, type: 3}
  m_Name: DD9
  m_EditorClassIdentifier: 
  <DialogueText>k__BackingField: "Gorzej, kiedy po swoim uczynku nie czujesz ca\u0142kowicie
    nic, poza pustk\u0105. Kiedy bliscy nie p\u0142acz\u0105 nad zamordowanym, kiedy
    w ich sercach nie go\u015Bci smutek, t\u0119sknota lub gniew, to nie b\u0119dzie
    im zale\u017Ce\u0107 na dochodzeniu sprawiedliwo\u015Bci."
  defaultDialogue: {fileID: 11400000, guid: a18e9f54da98e2947aafa0b30590014f, type: 2}
  optionalDialogue: {fileID: 0}
