%YAML 1.1
%TAG !u! tag:unity3d.com,2011:
--- !u!114 &11400000
MonoBehaviour:
  m_ObjectHideFlags: 0
  m_CorrespondingSourceObject: {fileID: 0}
  m_PrefabInstance: {fileID: 0}
  m_PrefabAsset: {fileID: 0}
  m_GameObject: {fileID: 0}
  m_Enabled: 1
  m_EditorHideFlags: 0
  m_Script: {fileID: 11500000, guid: e9ca79477ae0459439acacd190695284, type: 3}
  m_Name: HD2
  m_EditorClassIdentifier: 
  <DialogueText>k__BackingField: "S\u0105dz\u0119, \u017Ce cel mojej wizyty r\xF3wnie\u017C
    jest ci znany."
  defaultDialogue: {fileID: 11400000, guid: 1887d71ca6b6be74288daeeb1d122cc8, type: 2}
  optionalDialogue: {fileID: 0}
