%YAML 1.1
%TAG !u! tag:unity3d.com,2011:
--- !u!114 &11400000
MonoBehaviour:
  m_ObjectHideFlags: 0
  m_CorrespondingSourceObject: {fileID: 0}
  m_PrefabInstance: {fileID: 0}
  m_PrefabAsset: {fileID: 0}
  m_GameObject: {fileID: 0}
  m_Enabled: 1
  m_EditorHideFlags: 0
  m_Script: {fileID: 11500000, guid: e9ca79477ae0459439acacd190695284, type: 3}
  m_Name: HD5
  m_EditorClassIdentifier: 
  <DialogueText>k__BackingField: "Prawisz k\u0142amstwa, ale nic wi\u0119cej si\u0119
    i tak po tobie nie spodziewa\u0142em. To w\u0142a\u015Bnie mi\u0142o\u015B\u0107,
    jak i gniew, kt\xF3ry faktycznie jest jej podobny, buduj\u0105 wi\u0119zi mi\u0119dzy
    lud\u017Ami: nie zale\u017Cnie, czy to pozytywne, czy te\u017C nie."
  defaultDialogue: {fileID: 11400000, guid: b3c1fa9ae7850624481a34812e4f163f, type: 2}
  optionalDialogue: {fileID: 0}
