%YAML 1.1
%TAG !u! tag:unity3d.com,2011:
--- !u!114 &11400000
MonoBehaviour:
  m_ObjectHideFlags: 0
  m_CorrespondingSourceObject: {fileID: 0}
  m_PrefabInstance: {fileID: 0}
  m_PrefabAsset: {fileID: 0}
  m_GameObject: {fileID: 0}
  m_Enabled: 1
  m_EditorHideFlags: 0
  m_Script: {fileID: 11500000, guid: e9ca79477ae0459439acacd190695284, type: 3}
  m_Name: HD6
  m_EditorClassIdentifier: 
  <DialogueText>k__BackingField: "Bo to w\u0142a\u015Bnie szcz\u0119\u015Bcie daje
    si\u0142\u0119 dalej brn\u0105\u0107 w przysz\u0142o\u015B\u0107 i nie\u015B\u0107
    pomoc s\u0142abszym."
  defaultDialogue: {fileID: 11400000, guid: 14581ab990e352446803e51d1e8ac8bd, type: 2}
  optionalDialogue: {fileID: 0}
