%YAML 1.1
%TAG !u! tag:unity3d.com,2011:
--- !u!114 &11400000
MonoBehaviour:
  m_ObjectHideFlags: 0
  m_CorrespondingSourceObject: {fileID: 0}
  m_PrefabInstance: {fileID: 0}
  m_PrefabAsset: {fileID: 0}
  m_GameObject: {fileID: 0}
  m_Enabled: 1
  m_EditorHideFlags: 0
  m_Script: {fileID: 11500000, guid: e9ca79477ae0459439acacd190695284, type: 3}
  m_Name: HD8
  m_EditorClassIdentifier: 
  <DialogueText>k__BackingField: "Nie \u0142\u017Cyj, jak to masz w zwyczaju na temat
    ludzi. To w\u0142a\u015Bnie t\u0119sknota pokazuje, kto tak naprawd\u0119 jest
    dla nas wa\u017Cny, za kim jeste\u015Bmy w stanie zap\u0142aka\u0107, a kto pozostanie
    na zawsze w naszym sercu."
  defaultDialogue: {fileID: 11400000, guid: e48d32aff77d96940b64b0be62428679, type: 2}
  optionalDialogue: {fileID: 0}
